test.vcd
$date
  Sun Nov 23 20:22:45 2025
$end
$version
  GHDL v0
$end
$timescale
  1 fs
$end
$scope module standard $end
$upscope $end
$scope module textio $end
$upscope $end
$scope module std_logic_1164 $end
$upscope $end
$scope module numeric_std $end
$upscope $end
$scope module std_logic_arith $end
$upscope $end
$scope module std_logic_unsigned $end
$upscope $end
$scope module testbench $end
$var reg 1 ! stop $end
$var integer 32 " cycle $end
$var reg 1 # w_clk $end
$var reg 1 $ w_rstn $end
$var reg 32 % w_inst[31:0] $end
$var reg 7 & w_opcode[6:0] $end
$var reg 5 ' w_rd_addr[4:0] $end
$var reg 5 ( w_rs1_addr[4:0] $end
$var reg 5 ) w_rs2_addr[4:0] $end
$var reg 32 * w_rs1_data[31:0] $end
$var reg 32 + w_rs2_data[31:0] $end
$var reg 32 , w_imm[31:0] $end
$var reg 32 - w_ula[31:0] $end
$var reg 32 . w_mem[31:0] $end
$var reg 1 / w_reg_write $end
$var reg 1 0 w_alu_src $end
$var reg 1 1 w_mem2reg $end
$var reg 32 2 w_rd_data[31:0] $end
$scope module u_duv $end
$var reg 1 3 i_clk $end
$var reg 1 4 i_rstn $end
$var reg 32 5 o_inst[31:0] $end
$var reg 7 6 o_opcode[6:0] $end
$var reg 5 7 o_rd_addr[4:0] $end
$var reg 32 8 o_rd_data[31:0] $end
$var reg 5 9 o_rs1_addr[4:0] $end
$var reg 5 : o_rs2_addr[4:0] $end
$var reg 32 ; o_rs1_data[31:0] $end
$var reg 32 < o_rs2_data[31:0] $end
$var reg 32 = o_imm[31:0] $end
$var reg 32 > o_ula[31:0] $end
$var reg 32 ? o_mem[31:0] $end
$var reg 1 @ o_reg_write $end
$var reg 1 A o_alu_src $end
$var reg 1 B o_mem2reg $end
$var reg 32 C w_rs1[31:0] $end
$var reg 32 D w_rs2[31:0] $end
$var reg 32 E w_ula[31:0] $end
$var reg 32 F w_ulab[31:0] $end
$var reg 1 G w_zero $end
$var reg 32 H w_mem[31:0] $end
$var reg 32 I w_imm[31:0] $end
$var reg 32 J w_pc[31:0] $end
$var reg 32 K w_pc4[31:0] $end
$var reg 32 L w_inst[31:0] $end
$var reg 32 M w_rd_data[31:0] $end
$var reg 32 N w_reg_data[31:0] $end
$var reg 1 O w_alu_src $end
$var reg 1 P w_mem2reg $end
$var reg 1 Q w_reg_write $end
$var reg 1 R w_mem_read $end
$var reg 1 S w_mem_write $end
$var reg 2 T w_aluop[1:0] $end
$scope module u_controle $end
$var reg 7 U i_opcode[6:0] $end
$var reg 1 V o_alu_src $end
$var reg 1 W o_mem2reg $end
$var reg 1 X o_reg_write $end
$var reg 1 Y o_mem_read $end
$var reg 1 Z o_mem_write $end
$var reg 2 [ o_aluop[1:0] $end
$upscope $end
$scope module u_pc $end
$var reg 32 \ i_data[31:0] $end
$var reg 1 ] i_clk $end
$var reg 1 ^ i_rstn $end
$var reg 32 _ o_data[31:0] $end
$upscope $end
$scope module u_soma4 $end
$var reg 32 ` i_a[31:0] $end
$var reg 32 a i_b[31:0] $end
$var reg 32 b o_data[31:0] $end
$upscope $end
$scope module u_mem_inst $end
$var reg 32 c i_addr[31:0] $end
$var reg 32 d o_inst[31:0] $end
$upscope $end
$scope module u_gerador_imm $end
$var reg 32 e i_inst[31:0] $end
$var reg 32 f o_imm[31:0] $end
$var reg 7 g w_opcode[6:0] $end
$var reg 32 h w_temp[31:0] $end
$var reg 32 i w_type_i[31:0] $end
$var reg 32 j w_type_s[31:0] $end
$var reg 32 k w_type_b[31:0] $end
$var reg 32 l w_type_j[31:0] $end
$upscope $end
$scope module u_banco_registradores $end
$var reg 1 m i_clk $end
$var reg 1 n i_rstn $end
$var reg 1 o i_wrena $end
$var reg 5 p i_wraddr[4:0] $end
$var reg 5 q i_rs1[4:0] $end
$var reg 5 r i_rs2[4:0] $end
$var reg 32 s i_data[31:0] $end
$var reg 32 t o_rs1[31:0] $end
$var reg 32 u o_rs2[31:0] $end
$var reg 32 v o_wr[31:0] $end
$comment w_reg is not handled $end
$upscope $end
$scope module u_ula $end
$var reg 32 w i_a[31:0] $end
$var reg 32 x i_b[31:0] $end
$var reg 7 y i_opcode[6:0] $end
$var reg 3 z i_f3[2:0] $end
$var reg 1 { i_inst30 $end
$var reg 2 | i_aluop[1:0] $end
$var reg 1 } o_zero $end
$var reg 32 !" o_ula[31:0] $end
$upscope $end
$scope module u_mux_ula $end
$var reg 32 "" i_a[31:0] $end
$var reg 32 #" i_b[31:0] $end
$var reg 1 $" i_sel $end
$var reg 32 %" o_mux[31:0] $end
$upscope $end
$scope module u_mux_mem2reg $end
$var reg 32 &" i_a[31:0] $end
$var reg 32 '" i_b[31:0] $end
$var reg 1 (" i_sel $end
$var reg 32 )" o_mux[31:0] $end
$upscope $end
$scope module u_mem_dados $end
$var reg 1 *" i_clk $end
$var reg 1 +" i_rstn $end
$var reg 1 ," i_mem_write $end
$var reg 1 -" i_mem_read $end
$var reg 32 ." i_addr[31:0] $end
$var reg 32 /" i_data[31:0] $end
$var reg 32 0" o_data[31:0] $end
$comment memoria is not handled $end
$upscope $end
$upscope $end
$upscope $end
$enddefinitions $end
#0
0!
b0 "
0#
0$
b00000000000100000000001010010011 %
b0010011 &
b00101 '
b00000 (
b00001 )
b00000000000000000000000000000000 *
b00000000000000000000000000000000 +
b00000000000000000000000000000001 ,
b00000000000000000000000000000001 -
b00000000000000000000000000000000 .
1/
10
01
b00000000000000000000000000000001 2
03
04
b00000000000100000000001010010011 5
b0010011 6
b00101 7
b00000000000000000000000000000001 8
b00000 9
b00001 :
b00000000000000000000000000000000 ;
b00000000000000000000000000000000 <
b00000000000000000000000000000001 =
b00000000000000000000000000000001 >
b00000000000000000000000000000000 ?
1@
1A
0B
b00000000000000000000000000000000 C
b00000000000000000000000000000000 D
b00000000000000000000000000000001 E
b00000000000000000000000000000001 F
UG
b00000000000000000000000000000000 H
b00000000000000000000000000000001 I
b00000000000000000000000000000000 J
b00000000000000000000000000000100 K
b00000000000100000000001010010011 L
b00000000000000000000000000000001 M
b00000000000000000000000000000001 N
1O
0P
1Q
0R
0S
b00 T
b0010011 U
1V
0W
1X
0Y
0Z
b00 [
b00000000000000000000000000000100 \
0]
0^
b00000000000000000000000000000000 _
b00000000000000000000000000000000 `
b00000000000000000000000000000100 a
b00000000000000000000000000000100 b
b00000000000000000000000000000000 c
b00000000000100000000001010010011 d
b00000000000100000000001010010011 e
b00000000000000000000000000000001 f
b0010011 g
b00000000000000000000000000000001 h
b00000000000000000000000000000001 i
b00000000000000000000000000000101 j
b00000000000000000000010000000010 k
b00000000000000000000010000000000 l
0m
0n
1o
b00101 p
b00000 q
b00001 r
b00000000000000000000000000000001 s
b00000000000000000000000000000000 t
b00000000000000000000000000000000 u
b00000000000000000000000000000001 v
b00000000000000000000000000000000 w
b00000000000000000000000000000001 x
b0010011 y
b000 z
0{
b00 |
U}
b00000000000000000000000000000001 !"
b00000000000000000000000000000000 ""
b00000000000000000000000000000001 #"
1$"
b00000000000000000000000000000001 %"
b00000000000000000000000000000001 &"
b00000000000000000000000000000000 '"
0("
b00000000000000000000000000000001 )"
0*"
0+"
0,"
0-"
b00000000000000000000000000000001 ."
b00000000000000000000000000000000 /"
b00000000000000000000000000000000 0"
#5000000
b1 "
1#
13
1]
1m
1*"
#10000000
0#
1$
03
14
0]
1^
0m
1n
0*"
1+"
#15000000
b10 "
1#
b00000000001000000000001100010011 %
b00110 '
b00010 )
b00000000000000000000000000000010 ,
b00000000000000000000000000000010 -
b00000000000000000000000000000010 2
13
b00000000001000000000001100010011 5
b00110 7
b00000000000000000000000000000010 8
b00010 :
b00000000000000000000000000000010 =
b00000000000000000000000000000010 >
b00000000000000000000000000000010 E
b00000000000000000000000000000010 F
b00000000000000000000000000000010 I
b00000000000000000000000000000100 J
b00000000000000000000000000001000 K
b00000000001000000000001100010011 L
b00000000000000000000000000000010 M
b00000000000000000000000000000010 N
b00000000000000000000000000001000 \
1]
b00000000000000000000000000000100 _
b00000000000000000000000000000100 `
b00000000000000000000000000001000 b
b00000000000000000000000000000100 c
b00000000001000000000001100010011 d
b00000000001000000000001100010011 e
b00000000000000000000000000000010 f
b00000000000000000000000000000010 h
b00000000000000000000000000000010 i
b00000000000000000000000000000110 j
b00000000000000000000000000000011 k
b00000000000000000000000000000001 l
1m
b00110 p
b00010 r
b00000000000000000000000000000010 s
b00000000000000000000000000000010 v
b00000000000000000000000000000010 x
b00000000000000000000000000000010 !"
b00000000000000000000000000000010 #"
b00000000000000000000000000000010 %"
b00000000000000000000000000000010 &"
b00000000000000000000000000000010 )"
1*"
b00000000000000000000000000000010 ."
#20000000
0#
03
0]
0m
0*"
#25000000
b11 "
1#
b00000000001100000000001110010011 %
b00111 '
b00011 )
b00000000000000000000000000000011 ,
b00000000000000000000000000000011 -
b00000000000000000000000000000011 2
13
b00000000001100000000001110010011 5
b00111 7
b00000000000000000000000000000011 8
b00011 :
b00000000000000000000000000000011 =
b00000000000000000000000000000011 >
b00000000000000000000000000000011 E
b00000000000000000000000000000011 F
b00000000000000000000000000000011 I
b00000000000000000000000000001000 J
b00000000000000000000000000001100 K
b00000000001100000000001110010011 L
b00000000000000000000000000000011 M
b00000000000000000000000000000011 N
b00000000000000000000000000001100 \
1]
b00000000000000000000000000001000 _
b00000000000000000000000000001000 `
b00000000000000000000000000001100 b
b00000000000000000000000000001000 c
b00000000001100000000001110010011 d
b00000000001100000000001110010011 e
b00000000000000000000000000000011 f
b00000000000000000000000000000011 h
b00000000000000000000000000000011 i
b00000000000000000000000000000111 j
b00000000000000000000010000000011 k
b00000000000000000000010000000001 l
1m
b00111 p
b00011 r
b00000000000000000000000000000011 s
b00000000000000000000000000000011 v
b00000000000000000000000000000011 x
b00000000000000000000000000000011 !"
b00000000000000000000000000000011 #"
b00000000000000000000000000000011 %"
b00000000000000000000000000000011 &"
b00000000000000000000000000000011 )"
1*"
b00000000000000000000000000000011 ."
#30000000
0#
03
0]
0m
0*"
#35000000
b100 "
1#
b00000000010000000000111000010011 %
b11100 '
b00100 )
b00000000000000000000000000000100 ,
b00000000000000000000000000000100 -
b00000000000000000000000000000100 2
13
b00000000010000000000111000010011 5
b11100 7
b00000000000000000000000000000100 8
b00100 :
b00000000000000000000000000000100 =
b00000000000000000000000000000100 >
b00000000000000000000000000000100 E
b00000000000000000000000000000100 F
b00000000000000000000000000000100 I
b00000000000000000000000000001100 J
b00000000000000000000000000010000 K
b00000000010000000000111000010011 L
b00000000000000000000000000000100 M
b00000000000000000000000000000100 N
b00000000000000000000000000010000 \
1]
b00000000000000000000000000001100 _
b00000000000000000000000000001100 `
b00000000000000000000000000010000 b
b00000000000000000000000000001100 c
b00000000010000000000111000010011 d
b00000000010000000000111000010011 e
b00000000000000000000000000000100 f
b00000000000000000000000000000100 h
b00000000000000000000000000000100 i
b00000000000000000000000000011100 j
b00000000000000000000000000001110 k
b00000000000000000000000000000010 l
1m
b11100 p
b00100 r
b00000000000000000000000000000100 s
b00000000000000000000000000000100 v
b00000000000000000000000000000100 x
b00000000000000000000000000000100 !"
b00000000000000000000000000000100 #"
b00000000000000000000000000000100 %"
b00000000000000000000000000000100 &"
b00000000000000000000000000000100 )"
1*"
b00000000000000000000000000000100 ."
#40000000
0#
03
0]
0m
0*"
#45000000
b101 "
1#
b00000000010100000000111010010011 %
b11101 '
b00101 )
b00000000000000000000000000000001 +
b00000000000000000000000000000101 ,
b00000000000000000000000000000101 -
b00000000000000000000000000000101 2
13
b00000000010100000000111010010011 5
b11101 7
b00000000000000000000000000000101 8
b00101 :
b00000000000000000000000000000001 <
b00000000000000000000000000000101 =
b00000000000000000000000000000101 >
b00000000000000000000000000000001 D
b00000000000000000000000000000101 E
b00000000000000000000000000000101 F
b00000000000000000000000000000101 I
b00000000000000000000000000010000 J
b00000000000000000000000000010100 K
b00000000010100000000111010010011 L
b00000000000000000000000000000101 M
b00000000000000000000000000000101 N
b00000000000000000000000000010100 \
1]
b00000000000000000000000000010000 _
b00000000000000000000000000010000 `
b00000000000000000000000000010100 b
b00000000000000000000000000010000 c
b00000000010100000000111010010011 d
b00000000010100000000111010010011 e
b00000000000000000000000000000101 f
b00000000000000000000000000000101 h
b00000000000000000000000000000101 i
b00000000000000000000000000011101 j
b00000000000000000000010000001110 k
b00000000000000000000010000000010 l
1m
b11101 p
b00101 r
b00000000000000000000000000000101 s
b00000000000000000000000000000001 u
b00000000000000000000000000000101 v
b00000000000000000000000000000101 x
b00000000000000000000000000000101 !"
b00000000000000000000000000000001 ""
b00000000000000000000000000000101 #"
b00000000000000000000000000000101 %"
b00000000000000000000000000000101 &"
b00000000000000000000000000000101 )"
1*"
b00000000000000000000000000000101 ."
b00000000000000000000000000000001 /"
#50000000
0#
03
0]
0m
0*"
#55000000
b110 "
1#
b00000000011000000000111100010011 %
b11110 '
b00110 )
b00000000000000000000000000000010 +
b00000000000000000000000000000110 ,
b00000000000000000000000000000110 -
b00000000000000000000000000000110 2
13
b00000000011000000000111100010011 5
b11110 7
b00000000000000000000000000000110 8
b00110 :
b00000000000000000000000000000010 <
b00000000000000000000000000000110 =
b00000000000000000000000000000110 >
b00000000000000000000000000000010 D
b00000000000000000000000000000110 E
b00000000000000000000000000000110 F
b00000000000000000000000000000110 I
b00000000000000000000000000010100 J
b00000000000000000000000000011000 K
b00000000011000000000111100010011 L
b00000000000000000000000000000110 M
b00000000000000000000000000000110 N
b00000000000000000000000000011000 \
1]
b00000000000000000000000000010100 _
b00000000000000000000000000010100 `
b00000000000000000000000000011000 b
b00000000000000000000000000010100 c
b00000000011000000000111100010011 d
b00000000011000000000111100010011 e
b00000000000000000000000000000110 f
b00000000000000000000000000000110 h
b00000000000000000000000000000110 i
b00000000000000000000000000011110 j
b00000000000000000000000000001111 k
b00000000000000000000000000000011 l
1m
b11110 p
b00110 r
b00000000000000000000000000000110 s
b00000000000000000000000000000010 u
b00000000000000000000000000000110 v
b00000000000000000000000000000110 x
b00000000000000000000000000000110 !"
b00000000000000000000000000000010 ""
b00000000000000000000000000000110 #"
b00000000000000000000000000000110 %"
b00000000000000000000000000000110 &"
b00000000000000000000000000000110 )"
1*"
b00000000000000000000000000000110 ."
b00000000000000000000000000000010 /"
#60000000
0#
03
0]
0m
0*"
#65000000
b111 "
1#
b00000000011100000000111110010011 %
b11111 '
b00111 )
b00000000000000000000000000000011 +
b00000000000000000000000000000111 ,
b00000000000000000000000000000111 -
b00000000000000000000000000000111 2
13
b00000000011100000000111110010011 5
b11111 7
b00000000000000000000000000000111 8
b00111 :
b00000000000000000000000000000011 <
b00000000000000000000000000000111 =
b00000000000000000000000000000111 >
b00000000000000000000000000000011 D
b00000000000000000000000000000111 E
b00000000000000000000000000000111 F
b00000000000000000000000000000111 I
b00000000000000000000000000011000 J
b00000000000000000000000000011100 K
b00000000011100000000111110010011 L
b00000000000000000000000000000111 M
b00000000000000000000000000000111 N
b00000000000000000000000000011100 \
1]
b00000000000000000000000000011000 _
b00000000000000000000000000011000 `
b00000000000000000000000000011100 b
b00000000000000000000000000011000 c
b00000000011100000000111110010011 d
b00000000011100000000111110010011 e
b00000000000000000000000000000111 f
b00000000000000000000000000000111 h
b00000000000000000000000000000111 i
b00000000000000000000000000011111 j
b00000000000000000000010000001111 k
b00000000000000000000010000000011 l
1m
b11111 p
b00111 r
b00000000000000000000000000000111 s
b00000000000000000000000000000011 u
b00000000000000000000000000000111 v
b00000000000000000000000000000111 x
b00000000000000000000000000000111 !"
b00000000000000000000000000000011 ""
b00000000000000000000000000000111 #"
b00000000000000000000000000000111 %"
b00000000000000000000000000000111 &"
b00000000000000000000000000000111 )"
1*"
b00000000000000000000000000000111 ."
b00000000000000000000000000000011 /"
#70000000
0#
03
0]
0m
0*"
#75000000
b1000 "
1#
b00000001111111110000010000110011 %
b0110011 &
b01000 '
b11110 (
b11111 )
b00000000000000000000000000000110 *
b00000000000000000000000000000111 +
b00000000000000000000000000000000 ,
b00000000000000000000000000001101 -
00
b00000000000000000000000000001101 2
13
b00000001111111110000010000110011 5
b0110011 6
b01000 7
b00000000000000000000000000001101 8
b11110 9
b11111 :
b00000000000000000000000000000110 ;
b00000000000000000000000000000111 <
b00000000000000000000000000000000 =
b00000000000000000000000000001101 >
0A
b00000000000000000000000000000110 C
b00000000000000000000000000000111 D
b00000000000000000000000000001101 E
b00000000000000000000000000000000 I
b00000000000000000000000000011100 J
b00000000000000000000000000100000 K
b00000001111111110000010000110011 L
b00000000000000000000000000001101 M
b00000000000000000000000000001101 N
0O
b10 T
b0110011 U
0V
b10 [
b00000000000000000000000000100000 \
1]
b00000000000000000000000000011100 _
b00000000000000000000000000011100 `
b00000000000000000000000000100000 b
b00000000000000000000000000011100 c
b00000001111111110000010000110011 d
b00000001111111110000010000110011 e
b00000000000000000000000000000000 f
b0110011 g
b00000000000000000000000000000000 h
b00000000000000000000000000011111 i
b00000000000000000000000000001000 j
b00000000000000000000000000000100 k
b00000000000001111000010000001111 l
1m
b01000 p
b11110 q
b11111 r
b00000000000000000000000000001101 s
b00000000000000000000000000000110 t
b00000000000000000000000000000111 u
b00000000000000000000000000001101 v
b00000000000000000000000000000110 w
b0110011 y
b10 |
b00000000000000000000000000001101 !"
b00000000000000000000000000000111 ""
b00000000000000000000000000000000 #"
0$"
b00000000000000000000000000001101 &"
b00000000000000000000000000001101 )"
1*"
b00000000000000000000000000001101 ."
b00000000000000000000000000000111 /"
#80000000
0#
03
0]
0m
0*"
#85000000
b1001 "
1#
b01000000011000101000010010110011 %
b01001 '
b00101 (
b00110 )
b00000000000000000000000000000001 *
b00000000000000000000000000000010 +
b11111111111111111111111111111111 -
b11111111111111111111111111111111 2
13
b01000000011000101000010010110011 5
b01001 7
b11111111111111111111111111111111 8
b00101 9
b00110 :
b00000000000000000000000000000001 ;
b00000000000000000000000000000010 <
b11111111111111111111111111111111 >
b00000000000000000000000000000001 C
b00000000000000000000000000000010 D
b11111111111111111111111111111111 E
b00000000000000000000000000000010 F
b00000000000000000000000000100000 J
b00000000000000000000000000100100 K
b01000000011000101000010010110011 L
b11111111111111111111111111111111 M
b11111111111111111111111111111111 N
b00000000000000000000000000100100 \
1]
b00000000000000000000000000100000 _
b00000000000000000000000000100000 `
b00000000000000000000000000100100 b
b00000000000000000000000000100000 c
b01000000011000101000010010110011 d
b01000000011000101000010010110011 e
b00000000000000000000010000000110 i
b00000000000000000000010000001001 j
b00000000000000000000011000000100 k
b00000000000000010100001000000011 l
1m
b01001 p
b00101 q
b00110 r
b11111111111111111111111111111111 s
b00000000000000000000000000000001 t
b00000000000000000000000000000010 u
b11111111111111111111111111111111 v
b00000000000000000000000000000001 w
b00000000000000000000000000000010 x
1{
b11111111111111111111111111111111 !"
b00000000000000000000000000000010 ""
b00000000000000000000000000000010 %"
b11111111111111111111111111111111 &"
b11111111111111111111111111111111 )"
1*"
b11111111111111111111111111111111 ."
b00000000000000000000000000000010 /"
#90000000
0#
03
0]
0m
0*"
#95000000
b1010 "
1#
b00000001111000111111100100110011 %
b10010 '
b00111 (
b11110 )
b00000000000000000000000000000011 *
b00000000000000000000000000000110 +
b00000000000000000000000000000010 -
b00000000000000000000000000000010 2
13
b00000001111000111111100100110011 5
b10010 7
b00000000000000000000000000000010 8
b00111 9
b11110 :
b00000000000000000000000000000011 ;
b00000000000000000000000000000110 <
b00000000000000000000000000000010 >
b00000000000000000000000000000011 C
b00000000000000000000000000000110 D
b00000000000000000000000000000010 E
b00000000000000000000000000000110 F
b00000000000000000000000000100100 J
b00000000000000000000000000101000 K
b00000001111000111111100100110011 L
b00000000000000000000000000000010 M
b00000000000000000000000000000010 N
b00000000000000000000000000101000 \
1]
b00000000000000000000000000100100 _
b00000000000000000000000000100100 `
b00000000000000000000000000101000 b
b00000000000000000000000000100100 c
b00000001111000111111100100110011 d
b00000001111000111111100100110011 e
b00000000000000000000000000011110 i
b00000000000000000000000000010010 j
b00000000000000000000000000001001 k
b00000000000000011111100000001111 l
1m
b10010 p
b00111 q
b11110 r
b00000000000000000000000000000010 s
b00000000000000000000000000000011 t
b00000000000000000000000000000110 u
b00000000000000000000000000000010 v
b00000000000000000000000000000011 w
b00000000000000000000000000000110 x
b111 z
0{
b00000000000000000000000000000010 !"
b00000000000000000000000000000110 ""
b00000000000000000000000000000110 %"
b00000000000000000000000000000010 &"
b00000000000000000000000000000010 )"
1*"
b00000000000000000000000000000010 ."
b00000000000000000000000000000110 /"
#100000000
0#
03
0]
0m
0*"
#105000000
b1011 "
1#
b00000001110100110110100110110011 %
b10011 '
b00110 (
b11101 )
b00000000000000000000000000000010 *
b00000000000000000000000000000101 +
b00000000000000000000000000000111 -
b00000000000000000000000000000111 2
13
b00000001110100110110100110110011 5
b10011 7
b00000000000000000000000000000111 8
b00110 9
b11101 :
b00000000000000000000000000000010 ;
b00000000000000000000000000000101 <
b00000000000000000000000000000111 >
b00000000000000000000000000000010 C
b00000000000000000000000000000101 D
b00000000000000000000000000000111 E
b00000000000000000000000000000101 F
b00000000000000000000000000101000 J
b00000000000000000000000000101100 K
b00000001110100110110100110110011 L
b00000000000000000000000000000111 M
b00000000000000000000000000000111 N
b00000000000000000000000000101100 \
1]
b00000000000000000000000000101000 _
b00000000000000000000000000101000 `
b00000000000000000000000000101100 b
b00000000000000000000000000101000 c
b00000001110100110110100110110011 d
b00000001110100110110100110110011 e
b00000000000000000000000000011101 i
b00000000000000000000000000010011 j
b00000000000000000000010000001001 k
b00000000000000011011010000001110 l
1m
b10011 p
b00110 q
b11101 r
b00000000000000000000000000000111 s
b00000000000000000000000000000010 t
b00000000000000000000000000000101 u
b00000000000000000000000000000111 v
b00000000000000000000000000000010 w
b00000000000000000000000000000101 x
b110 z
b00000000000000000000000000000111 !"
b00000000000000000000000000000101 ""
b00000000000000000000000000000101 %"
b00000000000000000000000000000111 &"
b00000000000000000000000000000111 )"
1*"
b00000000000000000000000000000111 ."
b00000000000000000000000000000101 /"
#110000000
1!
0#
03
0]
0m
0*"
#115000000
b1100 "
1#
b00000001110100101100100110110011 %
b00101 (
b00000000000000000000000000000001 *
b00000000000000000000000000000100 -
b00000000000000000000000000000100 2
13
b00000001110100101100100110110011 5
b00000000000000000000000000000100 8
b00101 9
b00000000000000000000000000000001 ;
b00000000000000000000000000000100 >
b00000000000000000000000000000001 C
b00000000000000000000000000000100 E
b00000000000000000000000000101100 J
b00000000000000000000000000110000 K
b00000001110100101100100110110011 L
b00000000000000000000000000000100 M
b00000000000000000000000000000100 N
b00000000000000000000000000110000 \
1]
b00000000000000000000000000101100 _
b00000000000000000000000000101100 `
b00000000000000000000000000110000 b
b00000000000000000000000000101100 c
b00000001110100101100100110110011 d
b00000001110100101100100110110011 e
b00000000000000010110010000001110 l
1m
b00101 q
b00000000000000000000000000000100 s
b00000000000000000000000000000001 t
b00000000000000000000000000000100 v
b00000000000000000000000000000001 w
b100 z
b00000000000000000000000000000100 !"
b00000000000000000000000000000100 &"
b00000000000000000000000000000100 )"
1*"
b00000000000000000000000000000100 ."
